riem • rOpenSci: riem
…
Install the package with:

install.packages("riem")

Or install the development version using devtools with:

library("devtools")
install_github("ropenscilabs/riem")

Get available networks

library("riem")
riem_networks() 

## # A tibble: 267 x 2
##    code     name                     
##    <chr>    <chr>                    
##  1 AE__ASOS United Arab Emirates ASOS
##  2 AF__ASOS Afghanistan ASOS         
##  3 AG__ASOS Antigua and Barbuda ASOS 
##  4 AI__ASOS Anguilla ASOS            
##  5 AK_ASOS  Alaska ASOS              
##  6 AL__ASOS Albania ASOS             
##  7 AL_ASOS  Alabama ASOS             
##  8 AM__ASOS Armenia ASOS             
##  9 AN__ASOS Netherlands Antilles ASOS
## 10 AO__ASOS Angola ASOS              
## # … with 257 more rows

Get available stations for one network

riem_stations(network = "IN__ASOS") 

## No encoding supplied: defaulting to UTF-8.

## # A tibble: 101 x 4
##    id    name            lon   lat
##    <chr> <chr>         <dbl> <dbl>
##  1 VEAT  Agartala       91.2  23.9
##  2 VOAT  Agatti Island  72.2  10.8
##  3 VIAG  Agra           78.0  27.2
##  4 VAAH  Ahmedabad      72.6  23.1
##  5 VELP  Aizwal         92.6  23.8
##  6 VIAL  Allahabad      81.7  25.4
##  7 VIAR  Amritsar       74.9  31.6
##  8 VAAU  Aurangabad     75.4  19.9
##  9 VEBD  Baghdogra      88.3  26.6
## 10 VOBL  Bangalore      77.7  13.2
## # … with 91 more rows
…
