riem • riem
…
Install the package with:

install.packages("riem")

Or install the development version using devtools with:

library("devtools")
install_github("ropenscilabs/riem")

Get available networks

library("riem")
riem_networks() 

## # A tibble: 264 × 2
##    code     name                     
##    <chr>    <chr>                    
##  1 AE__ASOS United Arab Emirates ASOS
##  2 AF__ASOS Afghanistan ASOS         
##  3 AG__ASOS Antigua and Barbuda ASOS 
##  4 AI__ASOS Anguilla ASOS            
##  5 AK_ASOS  Alaska ASOS              
##  6 AL__ASOS Albania ASOS             
##  7 AL_ASOS  Alabama ASOS             
##  8 AM__ASOS Armenia ASOS             
##  9 AN__ASOS Netherlands Antilles ASOS
## 10 AO__ASOS Angola ASOS              
## # ℹ 254 more rows

Get available stations for one network

riem_stations(network = "IN__ASOS") 

## # A tibble: 125 × 22
##    index id    synop name    country elevation network online plot_name modified
##    <int> <chr> <dbl> <chr>   <chr>       <dbl> <chr>   <lgl>  <chr>     <chr>   
##  1     0 VEAT  99999 Agarta… IN            16  IN__AS… TRUE   "AGARTAL… 2023-12…
##  2     1 VOAT     NA Agatti… IN            -2  IN__AS… TRUE   "Agatti"  2020-06…
##  3     2 VIAG  99999 Agra    IN           169  IN__AS… TRUE   "AGRA (I… 2023-12…
##  4     3 VAAH  99999 Ahmeda… IN            55  IN__AS… TRUE   "AHMADAB… 2023-12…
##  5     4 VELP     NA Aizwal  IN           428. IN__AS… TRUE   "Lengpui" 2020-06…
##  6     5 VIAL  99999 Allaha… IN            98  IN__AS… FALSE  "ALLAHAB… 2023-12…
##  7     6 VEAB     NA Allaha… IN           100  IN__AS… TRUE   "Allahab… 2023-01…
##  8     7 VIAR  99999 Amrits… IN           234  IN__AS… TRUE   "AMRITSA… 2023-12…
##  9     8 VAAU     NA Aurang… IN           578. IN__AS… TRUE   "Auranga… 2023-12…
## 10     9 VEBD  99999 Baghdo… IN           126  IN__AS… TRUE   "BAGHDOG… 2023-12…
## # ℹ 115 more rows
## # ℹ 12 more variables: spri <int>, tzname <chr>, iemid <int>,
## #   archive_begin <chr>, metasite <lgl>, wigos <chr>, longitude <dbl>,
## #   latitude <dbl>, state <chr>, archive_end <chr>, lon <dbl>, lat <dbl>
…
